<?xml version='1.0' encoding='UTF-8'?>
<!-- IMPORTANT: This is an internal file that has been generated by the MIG software. Any direct editing or changes made to this file may result in unpredictable behavior or data corruption. It is strongly advised that users do not edit the contents of this file. Re-run the MIG GUI with the required settings if any of the options provided below need to be altered. -->
<Project NoOfControllers="1" >
    <ModuleName>mig_7series_0</ModuleName>
    <dci_inouts_inputs>1</dci_inouts_inputs>
    <dci_inputs>1</dci_inputs>
    <Debug_En>OFF</Debug_En>
    <DataDepth_En>1024</DataDepth_En>
    <LowPower_En>ON</LowPower_En>
    <XADC_En>Enabled</XADC_En>
    <TargetFPGA>xc7a100t-csg324/-1</TargetFPGA>
    <Version>4.1</Version>
    <SystemClock>Differential</SystemClock>
    <ReferenceClock>Differential</ReferenceClock>
    <SysResetPolarity>ACTIVE LOW</SysResetPolarity>
    <BankSelectionFlag>TRUE</BankSelectionFlag>
    <InternalVref>0</InternalVref>
    <dci_hr_inouts_inputs>50 Ohms</dci_hr_inouts_inputs>
    <dci_cascade>0</dci_cascade>
    <FPGADevice>
        <selected>7a/xc7a100ti-csg324</selected>
    </FPGADevice>
    <Controller number="0" >
        <MemoryDevice>DDR3_SDRAM/Components/MT41J128M8XX-125</MemoryDevice>
        <TimePeriod>3225</TimePeriod>
        <VccAuxIO>1.8V</VccAuxIO>
        <PHYRatio>2:1</PHYRatio>
        <InputClkFreq></InputClkFreq>
        <UIExtraClocks>0</UIExtraClocks>
        <MMCM_VCO>620</MMCM_VCO>
        <MMCMClkOut0> 1.000</MMCMClkOut0>
        <MMCMClkOut1>1</MMCMClkOut1>
        <MMCMClkOut2>1</MMCMClkOut2>
        <MMCMClkOut3>1</MMCMClkOut3>
        <MMCMClkOut4>1</MMCMClkOut4>
        <DataWidth>32</DataWidth>
        <DeepMemory>1</DeepMemory>
        <DataMask>1</DataMask>
        <ECC>Disabled</ECC>
        <Ordering>Strict</Ordering>
        <BankMachineCnt>4</BankMachineCnt>
        <CustomPart>FALSE</CustomPart>
        <NewPartName></NewPartName>
        <RowAddress>14</RowAddress>
        <ColAddress>10</ColAddress>
        <BankAddress>3</BankAddress>
        <MemoryVoltage>1.5V</MemoryVoltage>
        <UserMemoryAddressMap>BANK_ROW_COLUMN</UserMemoryAddressMap>
        <BankSelection>
            <Bank T2="Address/Ctrl-2" name="34" T0="Address/Ctrl-0" T1="Address/Ctrl-1" />
            <Bank T2="DQ[16-23]" T3="DQ[24-31]" name="35" T0="DQ[0-7]" T1="DQ[8-15]" />
        </BankSelection>
        <Reference_Clock>
            <Pin PADName="A10/A9(CC_P/N)" Bank="16" name="clk_ref_p/n" />
        </Reference_Clock>
        <System_Clock>
            <Pin PADName="N5/P5(CC_P/N)" Bank="34" name="sys_clk_p/n" />
        </System_Clock>
        <System_Control>
            <Pin PADName="A11" Bank="15" name="sys_rst" />
            <Pin PADName="A15" Bank="15" name="init_calib_complete" />
            <Pin PADName="A16" Bank="15" name="tg_compare_error" />
        </System_Control>
        <TimingParameters>
            <Parameters twtr="7.5" trrd="6" trefi="7.8" tfaw="30" trtp="7.5" tcke="5" trfc="110" trp="13.75" tras="35" trcd="13.75" />
        </TimingParameters>
        <mrBurstLength name="Burst Length" >8 - Fixed</mrBurstLength>
        <mrBurstType name="Read Burst Type and Length" >Sequential</mrBurstType>
        <mrCasLatency name="CAS Latency" >5</mrCasLatency>
        <mrMode name="Mode" >Normal</mrMode>
        <mrDllReset name="DLL Reset" >No</mrDllReset>
        <mrPdMode name="DLL control for precharge PD" >Slow Exit</mrPdMode>
        <emrDllEnable name="DLL Enable" >Enable</emrDllEnable>
        <emrOutputDriveStrength name="Output Driver Impedance Control" >RZQ/7</emrOutputDriveStrength>
        <emrMirrorSelection name="Address Mirroring" >Disable</emrMirrorSelection>
        <emrCSSelection name="Controller Chip Select Pin" >Enable</emrCSSelection>
        <emrRTT name="RTT (nominal) - On Die Termination (ODT)" >RZQ/4</emrRTT>
        <emrPosted name="Additive Latency (AL)" >0</emrPosted>
        <emrOCD name="Write Leveling Enable" >Disabled</emrOCD>
        <emrDQS name="TDQS enable" >Enabled</emrDQS>
        <emrRDQS name="Qoff" >Output Buffer Enabled</emrRDQS>
        <mr2PartialArraySelfRefresh name="Partial-Array Self Refresh" >Full Array</mr2PartialArraySelfRefresh>
        <mr2CasWriteLatency name="CAS write latency" >5</mr2CasWriteLatency>
        <mr2AutoSelfRefresh name="Auto Self Refresh" >Enabled</mr2AutoSelfRefresh>
        <mr2SelfRefreshTempRange name="High Temparature Self Refresh Rate" >Normal</mr2SelfRefreshTempRange>
        <mr2RTTWR name="RTT_WR - Dynamic On Die Termination (ODT)" >Dynamic ODT off</mr2RTTWR>
        <PortInterface>NATIVE</PortInterface>
    </Controller>

</Project>
